tck	|	 tot_p	|	 tot_s	|	 tot_i	|	 inf	|	 imm	|
0	|	 1238	|	 11	|	 0	|	 0.888530	|	 0.000000	|
1	|	 1250	|	 16	|	 0	|	 1.280000	|	 0.000000	|
2	|	 1260	|	 21	|	 0	|	 1.666667	|	 0.000000	|
3	|	 1267	|	 27	|	 0	|	 2.131018	|	 0.000000	|
4	|	 1278	|	 36	|	 0	|	 2.816901	|	 0.000000	|
5	|	 1294	|	 44	|	 0	|	 3.400309	|	 0.000000	|
6	|	 1307	|	 50	|	 0	|	 3.825555	|	 0.000000	|
7	|	 1316	|	 59	|	 0	|	 4.483283	|	 0.000000	|
8	|	 1322	|	 67	|	 0	|	 5.068079	|	 0.000000	|
9	|	 1338	|	 77	|	 0	|	 5.754858	|	 0.000000	|
10	|	 1353	|	 89	|	 0	|	 6.577975	|	 0.000000	|
11	|	 1364	|	 105	|	 0	|	 7.697947	|	 0.000000	|
12	|	 1368	|	 117	|	 0	|	 8.552631	|	 0.000000	|
13	|	 1383	|	 129	|	 0	|	 9.327549	|	 0.000000	|
14	|	 1392	|	 142	|	 0	|	 10.201149	|	 0.000000	|
15	|	 1401	|	 161	|	 0	|	 11.491792	|	 0.000000	|
16	|	 1415	|	 183	|	 0	|	 12.932862	|	 0.000000	|
17	|	 1434	|	 212	|	 0	|	 14.783821	|	 0.000000	|
18	|	 1445	|	 232	|	 0	|	 16.055363	|	 0.000000	|
19	|	 1453	|	 261	|	 0	|	 17.962835	|	 0.000000	|
20	|	 1467	|	 273	|	 10	|	 18.609407	|	 0.681663	|
21	|	 1478	|	 300	|	 11	|	 20.297699	|	 0.744249	|
22	|	 1489	|	 316	|	 15	|	 21.222298	|	 1.007388	|
23	|	 1506	|	 336	|	 20	|	 22.310757	|	 1.328021	|
24	|	 1512	|	 359	|	 24	|	 23.743385	|	 1.587302	|
25	|	 1520	|	 381	|	 33	|	 25.065790	|	 2.171053	|
26	|	 1533	|	 404	|	 39	|	 26.353556	|	 2.544031	|
27	|	 1537	|	 432	|	 44	|	 28.106701	|	 2.862720	|
28	|	 1543	|	 447	|	 52	|	 28.969540	|	 3.370058	|
29	|	 1550	|	 471	|	 60	|	 30.387096	|	 3.870968	|
30	|	 1560	|	 489	|	 70	|	 31.346153	|	 4.487179	|
31	|	 1573	|	 511	|	 79	|	 32.485695	|	 5.022251	|
32	|	 1580	|	 531	|	 92	|	 33.607594	|	 5.822785	|
33	|	 1588	|	 553	|	 103	|	 34.823677	|	 6.486146	|
34	|	 1588	|	 591	|	 110	|	 37.216625	|	 6.926952	|
35	|	 1605	|	 616	|	 122	|	 38.380062	|	 7.601246	|
36	|	 1610	|	 644	|	 137	|	 40.000000	|	 8.509316	|
37	|	 1606	|	 681	|	 151	|	 42.403488	|	 9.402242	|
38	|	 1607	|	 692	|	 172	|	 43.061607	|	 10.703174	|
39	|	 1607	|	 716	|	 185	|	 44.555073	|	 11.512135	|
40	|	 1611	|	 740	|	 205	|	 45.934204	|	 12.725016	|
41	|	 1612	|	 766	|	 218	|	 47.518612	|	 13.523573	|
42	|	 1618	|	 798	|	 240	|	 49.320148	|	 14.833127	|
43	|	 1620	|	 831	|	 258	|	 51.296295	|	 15.925926	|
44	|	 1622	|	 857	|	 277	|	 52.836006	|	 17.077682	|
45	|	 1618	|	 885	|	 296	|	 54.697159	|	 18.294189	|
46	|	 1618	|	 902	|	 316	|	 55.747837	|	 19.530285	|
47	|	 1616	|	 921	|	 337	|	 56.992573	|	 20.853960	|
48	|	 1614	|	 926	|	 363	|	 57.372986	|	 22.490705	|
49	|	 1618	|	 940	|	 385	|	 58.096416	|	 23.794809	|
50	|	 1619	|	 962	|	 410	|	 59.419395	|	 25.324274	|
51	|	 1614	|	 970	|	 429	|	 60.099133	|	 26.579926	|
52	|	 1609	|	 970	|	 455	|	 60.285892	|	 28.278435	|
53	|	 1602	|	 953	|	 477	|	 59.488140	|	 29.775280	|
54	|	 1604	|	 957	|	 503	|	 59.663342	|	 31.359102	|
55	|	 1596	|	 929	|	 541	|	 58.208019	|	 33.897243	|
56	|	 1598	|	 904	|	 571	|	 56.570713	|	 35.732166	|
57	|	 1590	|	 879	|	 604	|	 55.283020	|	 37.987423	|
58	|	 1582	|	 831	|	 648	|	 52.528446	|	 40.960808	|
59	|	 1577	|	 800	|	 677	|	 50.729233	|	 42.929615	|
60	|	 1574	|	 768	|	 707	|	 48.792885	|	 44.917408	|
61	|	 1569	|	 728	|	 745	|	 46.398979	|	 47.482471	|
62	|	 1557	|	 688	|	 780	|	 44.187542	|	 50.096340	|
63	|	 1554	|	 635	|	 825	|	 40.862289	|	 53.088802	|
64	|	 1553	|	 583	|	 865	|	 37.540245	|	 55.698647	|
65	|	 1542	|	 535	|	 901	|	 34.695202	|	 58.430611	|
66	|	 1531	|	 486	|	 941	|	 31.743958	|	 61.463097	|
67	|	 1524	|	 441	|	 968	|	 28.937008	|	 63.517059	|
68	|	 1528	|	 401	|	 1010	|	 26.243456	|	 66.099480	|
69	|	 1539	|	 369	|	 1042	|	 23.976608	|	 67.706306	|
70	|	 1534	|	 339	|	 1070	|	 22.099087	|	 69.752281	|
71	|	 1526	|	 287	|	 1101	|	 18.807339	|	 72.149406	|
72	|	 1524	|	 254	|	 1116	|	 16.666666	|	 73.228348	|
73	|	 1521	|	 225	|	 1138	|	 14.792899	|	 74.819199	|
74	|	 1531	|	 208	|	 1147	|	 13.585892	|	 74.918350	|
75	|	 1538	|	 177	|	 1170	|	 11.508452	|	 76.072823	|
76	|	 1551	|	 161	|	 1184	|	 10.380400	|	 76.337845	|
77	|	 1565	|	 155	|	 1184	|	 9.904154	|	 75.654953	|
78	|	 1570	|	 139	|	 1193	|	 8.853503	|	 75.987259	|
79	|	 1592	|	 137	|	 1197	|	 8.605528	|	 75.188438	|
80	|	 1603	|	 137	|	 1195	|	 8.546475	|	 74.547722	|
81	|	 1615	|	 138	|	 1195	|	 8.544891	|	 73.993805	|
82	|	 1631	|	 133	|	 1194	|	 8.154507	|	 73.206619	|
83	|	 1654	|	 134	|	 1193	|	 8.101572	|	 72.128174	|
84	|	 1670	|	 136	|	 1184	|	 8.143713	|	 70.898201	|
85	|	 1687	|	 146	|	 1174	|	 8.654416	|	 69.590988	|
86	|	 1708	|	 154	|	 1170	|	 9.016394	|	 68.501167	|
87	|	 1719	|	 156	|	 1164	|	 9.075044	|	 67.713791	|
88	|	 1740	|	 169	|	 1151	|	 9.712644	|	 66.149422	|
89	|	 1746	|	 180	|	 1142	|	 10.309278	|	 65.406647	|
90	|	 1759	|	 188	|	 1126	|	 10.687891	|	 64.013641	|
91	|	 1776	|	 192	|	 1120	|	 10.810811	|	 63.063065	|
92	|	 1797	|	 205	|	 1101	|	 11.407902	|	 61.268780	|
93	|	 1811	|	 218	|	 1088	|	 12.037548	|	 60.077305	|
94	|	 1824	|	 238	|	 1071	|	 13.048245	|	 58.717106	|
95	|	 1839	|	 255	|	 1055	|	 13.866232	|	 57.368134	|
96	|	 1846	|	 269	|	 1041	|	 14.572047	|	 56.392200	|
97	|	 1859	|	 290	|	 1026	|	 15.599785	|	 55.190964	|
98	|	 1880	|	 321	|	 1012	|	 17.074469	|	 53.829788	|
99	|	 1893	|	 337	|	 996	|	 17.802429	|	 52.614899	|
100	|	 1905	|	 361	|	 978	|	 18.950130	|	 51.338581	|
101	|	 1914	|	 390	|	 964	|	 20.376175	|	 50.365726	|
102	|	 1927	|	 422	|	 949	|	 21.899326	|	 49.247536	|
103	|	 1937	|	 468	|	 932	|	 24.161074	|	 48.115643	|
104	|	 1947	|	 505	|	 913	|	 25.937340	|	 46.892654	|
105	|	 1955	|	 545	|	 899	|	 27.877237	|	 45.984653	|
106	|	 1975	|	 577	|	 885	|	 29.215189	|	 44.810127	|
107	|	 1988	|	 614	|	 856	|	 30.885311	|	 43.058350	|
108	|	 2003	|	 645	|	 836	|	 32.201698	|	 41.737392	|
109	|	 2021	|	 672	|	 817	|	 33.250866	|	 40.425533	|
110	|	 2027	|	 709	|	 789	|	 34.977798	|	 38.924519	|
111	|	 2028	|	 749	|	 770	|	 36.932938	|	 37.968441	|
112	|	 2032	|	 798	|	 753	|	 39.271652	|	 37.057087	|
113	|	 2047	|	 847	|	 726	|	 41.377625	|	 35.466537	|
114	|	 2049	|	 901	|	 701	|	 43.972668	|	 34.211811	|
115	|	 2053	|	 930	|	 676	|	 45.299561	|	 32.927422	|
116	|	 2065	|	 957	|	 649	|	 46.343826	|	 31.428572	|
117	|	 2071	|	 1008	|	 626	|	 48.672138	|	 30.226944	|
118	|	 2076	|	 1062	|	 608	|	 51.156071	|	 29.287090	|
119	|	 2076	|	 1078	|	 607	|	 51.926781	|	 29.238920	|
120	|	 2075	|	 1125	|	 581	|	 54.216869	|	 28.000000	|
121	|	 2084	|	 1167	|	 578	|	 55.998081	|	 27.735125	|
122	|	 2080	|	 1198	|	 582	|	 57.596153	|	 27.980770	|
123	|	 2075	|	 1227	|	 581	|	 59.132530	|	 28.000000	|
124	|	 2076	|	 1244	|	 600	|	 59.922928	|	 28.901733	|
125	|	 2069	|	 1258	|	 613	|	 60.802319	|	 29.627840	|
126	|	 2066	|	 1265	|	 638	|	 61.229427	|	 30.880930	|
127	|	 2067	|	 1279	|	 645	|	 61.877117	|	 31.204645	|
128	|	 2068	|	 1280	|	 670	|	 61.895550	|	 32.398453	|
129	|	 2069	|	 1268	|	 697	|	 61.285645	|	 33.687771	|
130	|	 2063	|	 1258	|	 712	|	 60.979156	|	 34.512844	|
131	|	 2057	|	 1217	|	 746	|	 59.163830	|	 36.266407	|
132	|	 2047	|	 1181	|	 779	|	 57.694187	|	 38.055691	|
133	|	 2045	|	 1141	|	 818	|	 55.794621	|	 40.000000	|
134	|	 2031	|	 1102	|	 849	|	 54.258987	|	 41.802067	|
135	|	 2018	|	 1050	|	 889	|	 52.031715	|	 44.053520	|
136	|	 2014	|	 1011	|	 927	|	 50.198608	|	 46.027805	|
137	|	 2011	|	 981	|	 961	|	 48.781700	|	 47.787170	|
138	|	 2002	|	 924	|	 1005	|	 46.153847	|	 50.199799	|
139	|	 1996	|	 856	|	 1064	|	 42.885773	|	 53.306614	|
140	|	 2002	|	 818	|	 1106	|	 40.859142	|	 55.244755	|
141	|	 1995	|	 766	|	 1158	|	 38.395988	|	 58.045113	|
142	|	 1992	|	 702	|	 1212	|	 35.240963	|	 60.843372	|
143	|	 1982	|	 646	|	 1257	|	 32.593342	|	 63.420788	|
144	|	 1978	|	 583	|	 1312	|	 29.474216	|	 66.329628	|
145	|	 1984	|	 526	|	 1365	|	 26.512096	|	 68.800400	|
146	|	 1990	|	 477	|	 1406	|	 23.969849	|	 70.653267	|
147	|	 1982	|	 433	|	 1436	|	 21.846619	|	 72.452072	|
148	|	 1983	|	 389	|	 1472	|	 19.616743	|	 74.230965	|
149	|	 1982	|	 350	|	 1502	|	 17.658930	|	 75.782036	|
150	|	 1990	|	 331	|	 1518	|	 16.633165	|	 76.281410	|
151	|	 2000	|	 311	|	 1538	|	 15.550000	|	 76.900002	|
152	|	 2015	|	 304	|	 1545	|	 15.086848	|	 76.674934	|
153	|	 2029	|	 293	|	 1552	|	 14.440611	|	 76.490883	|
154	|	 2040	|	 279	|	 1559	|	 13.676471	|	 76.421570	|
155	|	 2047	|	 277	|	 1574	|	 13.531998	|	 76.893013	|
156	|	 2057	|	 270	|	 1581	|	 13.125912	|	 76.859505	|
157	|	 2069	|	 270	|	 1584	|	 13.049783	|	 76.558723	|
158	|	 2086	|	 266	|	 1584	|	 12.751678	|	 75.934807	|
159	|	 2091	|	 264	|	 1586	|	 12.625538	|	 75.848877	|
160	|	 2098	|	 263	|	 1584	|	 12.535748	|	 75.500473	|
161	|	 2102	|	 265	|	 1580	|	 12.607041	|	 75.166512	|
162	|	 2117	|	 271	|	 1577	|	 12.801134	|	 74.492203	|
163	|	 2142	|	 280	|	 1577	|	 13.071896	|	 73.622780	|
164	|	 2165	|	 293	|	 1578	|	 13.533487	|	 72.886833	|
165	|	 2183	|	 308	|	 1575	|	 14.109024	|	 72.148422	|
166	|	 2194	|	 320	|	 1576	|	 14.585233	|	 71.832268	|
167	|	 2207	|	 341	|	 1564	|	 15.450838	|	 70.865425	|
168	|	 2221	|	 357	|	 1559	|	 16.073841	|	 70.193604	|
169	|	 2239	|	 374	|	 1560	|	 16.703886	|	 69.673958	|
170	|	 2253	|	 390	|	 1546	|	 17.310253	|	 68.619621	|
171	|	 2278	|	 427	|	 1530	|	 18.744513	|	 67.164177	|
172	|	 2294	|	 451	|	 1522	|	 19.659983	|	 66.346992	|
173	|	 2306	|	 479	|	 1500	|	 20.771900	|	 65.047699	|
174	|	 2321	|	 524	|	 1476	|	 22.576475	|	 63.593277	|
175	|	 2329	|	 558	|	 1449	|	 23.958780	|	 62.215542	|
176	|	 2342	|	 582	|	 1420	|	 24.850555	|	 60.631939	|
177	|	 2361	|	 651	|	 1390	|	 27.573063	|	 58.873360	|
178	|	 2372	|	 685	|	 1363	|	 28.878584	|	 57.462059	|
179	|	 2384	|	 730	|	 1338	|	 30.620806	|	 56.124161	|
180	|	 2399	|	 783	|	 1308	|	 32.638599	|	 54.522717	|
181	|	 2409	|	 829	|	 1279	|	 34.412621	|	 53.092571	|
182	|	 2427	|	 881	|	 1260	|	 36.299957	|	 51.915947	|
183	|	 2438	|	 919	|	 1235	|	 37.694832	|	 50.656277	|
184	|	 2451	|	 968	|	 1213	|	 39.494083	|	 49.490005	|
185	|	 2465	|	 1009	|	 1190	|	 40.933064	|	 48.275864	|
186	|	 2466	|	 1056	|	 1172	|	 42.822384	|	 47.526360	|
187	|	 2466	|	 1097	|	 1143	|	 44.484997	|	 46.350365	|
188	|	 2466	|	 1120	|	 1126	|	 45.417679	|	 45.660988	|
189	|	 2472	|	 1152	|	 1113	|	 46.601940	|	 45.024273	|
190	|	 2481	|	 1183	|	 1091	|	 47.682384	|	 43.974205	|
191	|	 2481	|	 1223	|	 1046	|	 49.294640	|	 42.160419	|
192	|	 2484	|	 1233	|	 1042	|	 49.637680	|	 41.948471	|
193	|	 2489	|	 1251	|	 1014	|	 50.261150	|	 40.739254	|
194	|	 2483	|	 1284	|	 984	|	 51.711639	|	 39.629482	|
195	|	 2480	|	 1292	|	 972	|	 52.096775	|	 39.193550	|
196	|	 2468	|	 1319	|	 938	|	 53.444084	|	 38.006481	|
197	|	 2469	|	 1347	|	 918	|	 54.556499	|	 37.181046	|
198	|	 2455	|	 1323	|	 926	|	 53.890018	|	 37.718941	|
199	|	 2454	|	 1316	|	 932	|	 53.626732	|	 37.978809	|
200	|	 2457	|	 1315	|	 940	|	 53.520554	|	 38.258038	|
201	|	 2453	|	 1319	|	 953	|	 53.770893	|	 38.850388	|
202	|	 2449	|	 1301	|	 976	|	 53.123722	|	 39.853001	|
203	|	 2443	|	 1283	|	 1002	|	 52.517395	|	 41.015144	|
204	|	 2435	|	 1265	|	 1034	|	 51.950718	|	 42.464066	|
205	|	 2431	|	 1236	|	 1071	|	 50.843273	|	 44.055943	|
206	|	 2421	|	 1202	|	 1099	|	 49.648907	|	 45.394466	|
207	|	 2409	|	 1176	|	 1131	|	 48.816936	|	 46.948940	|
208	|	 2412	|	 1152	|	 1172	|	 47.761192	|	 48.590382	|
209	|	 2402	|	 1121	|	 1201	|	 46.669441	|	 50.000000	|
210	|	 2399	|	 1096	|	 1235	|	 45.685703	|	 51.479782	|
211	|	 2392	|	 1050	|	 1271	|	 43.896320	|	 53.135452	|
212	|	 2390	|	 1012	|	 1316	|	 42.343098	|	 55.062763	|
213	|	 2389	|	 979	|	 1345	|	 40.979488	|	 56.299706	|
214	|	 2391	|	 955	|	 1376	|	 39.941448	|	 57.549141	|
215	|	 2394	|	 906	|	 1425	|	 37.844612	|	 59.523811	|
216	|	 2398	|	 863	|	 1459	|	 35.988323	|	 60.842369	|
217	|	 2390	|	 820	|	 1503	|	 34.309624	|	 62.887028	|
218	|	 2390	|	 770	|	 1550	|	 32.217575	|	 64.853554	|
219	|	 2387	|	 736	|	 1581	|	 30.833683	|	 66.233765	|
220	|	 2392	|	 710	|	 1604	|	 29.682274	|	 67.056854	|
221	|	 2391	|	 674	|	 1631	|	 28.189043	|	 68.214134	|
222	|	 2386	|	 624	|	 1672	|	 26.152557	|	 70.075439	|
223	|	 2393	|	 599	|	 1689	|	 25.031342	|	 70.580864	|
224	|	 2392	|	 565	|	 1717	|	 23.620401	|	 71.780937	|
225	|	 2397	|	 545	|	 1741	|	 22.736753	|	 72.632454	|
226	|	 2399	|	 530	|	 1762	|	 22.092539	|	 73.447273	|
227	|	 2411	|	 516	|	 1787	|	 21.401909	|	 74.118622	|
228	|	 2419	|	 497	|	 1807	|	 20.545679	|	 74.700287	|
229	|	 2422	|	 476	|	 1830	|	 19.653179	|	 75.557388	|
230	|	 2437	|	 476	|	 1840	|	 19.532211	|	 75.502670	|
231	|	 2442	|	 465	|	 1853	|	 19.041769	|	 75.880424	|
232	|	 2459	|	 474	|	 1854	|	 19.276129	|	 75.396500	|
233	|	 2474	|	 469	|	 1867	|	 18.957155	|	 75.464836	|
234	|	 2479	|	 470	|	 1870	|	 18.959257	|	 75.433640	|
235	|	 2487	|	 471	|	 1877	|	 18.938480	|	 75.472458	|
236	|	 2500	|	 466	|	 1879	|	 18.639999	|	 75.160004	|
237	|	 2500	|	 492	|	 1867	|	 19.680000	|	 74.680000	|
238	|	 2500	|	 491	|	 1870	|	 19.639999	|	 74.800003	|
239	|	 2500	|	 497	|	 1865	|	 19.879999	|	 74.599998	|
240	|	 2500	|	 497	|	 1863	|	 19.879999	|	 74.519997	|
241	|	 2500	|	 503	|	 1856	|	 20.120001	|	 74.239998	|
242	|	 2500	|	 505	|	 1846	|	 20.200001	|	 73.839996	|
243	|	 2500	|	 514	|	 1842	|	 20.559999	|	 73.680000	|
244	|	 2500	|	 539	|	 1815	|	 21.559999	|	 72.599998	|
245	|	 2500	|	 547	|	 1800	|	 21.879999	|	 72.000000	|
246	|	 2500	|	 554	|	 1790	|	 22.160000	|	 71.599998	|
247	|	 2500	|	 566	|	 1769	|	 22.639999	|	 70.760002	|
248	|	 2500	|	 584	|	 1763	|	 23.360001	|	 70.519997	|
249	|	 2500	|	 590	|	 1752	|	 23.600000	|	 70.080002	|
250	|	 2500	|	 607	|	 1713	|	 24.280001	|	 68.519997	|
251	|	 2500	|	 627	|	 1695	|	 25.080000	|	 67.800003	|
252	|	 2500	|	 651	|	 1661	|	 26.040001	|	 66.440002	|
253	|	 2500	|	 670	|	 1631	|	 26.799999	|	 65.239998	|
254	|	 2500	|	 707	|	 1605	|	 28.280001	|	 64.199997	|
255	|	 2500	|	 724	|	 1569	|	 28.959999	|	 62.759998	|
256	|	 2500	|	 743	|	 1547	|	 29.719999	|	 61.880001	|
257	|	 2500	|	 772	|	 1507	|	 30.879999	|	 60.279999	|
258	|	 2500	|	 779	|	 1494	|	 31.160000	|	 59.759998	|
259	|	 2500	|	 798	|	 1463	|	 31.920000	|	 58.520000	|
260	|	 2500	|	 838	|	 1432	|	 33.520000	|	 57.279999	|
261	|	 2500	|	 873	|	 1407	|	 34.919998	|	 56.279999	|
262	|	 2500	|	 902	|	 1376	|	 36.080002	|	 55.040001	|
263	|	 2500	|	 936	|	 1347	|	 37.439999	|	 53.880001	|
264	|	 2500	|	 973	|	 1317	|	 38.919998	|	 52.680000	|
265	|	 2500	|	 982	|	 1306	|	 39.279999	|	 52.240002	|
266	|	 2500	|	 1022	|	 1278	|	 40.880001	|	 51.119999	|
267	|	 2500	|	 1050	|	 1245	|	 42.000000	|	 49.799999	|
268	|	 2500	|	 1073	|	 1223	|	 42.919998	|	 48.919998	|
269	|	 2500	|	 1101	|	 1195	|	 44.040001	|	 47.799999	|
270	|	 2500	|	 1120	|	 1166	|	 44.799999	|	 46.639999	|
271	|	 2500	|	 1132	|	 1157	|	 45.279999	|	 46.279999	|
272	|	 2487	|	 1131	|	 1154	|	 45.476479	|	 46.401287	|
273	|	 2490	|	 1121	|	 1151	|	 45.020081	|	 46.224899	|
274	|	 2488	|	 1123	|	 1135	|	 45.136658	|	 45.618973	|
275	|	 2486	|	 1127	|	 1155	|	 45.333870	|	 46.460178	|
276	|	 2494	|	 1120	|	 1156	|	 44.907780	|	 46.351242	|
277	|	 2491	|	 1118	|	 1161	|	 44.881573	|	 46.607788	|
278	|	 2486	|	 1110	|	 1167	|	 44.650040	|	 46.942879	|
279	|	 2482	|	 1090	|	 1178	|	 43.916195	|	 47.461723	|
280	|	 2485	|	 1096	|	 1174	|	 44.104630	|	 47.243462	|
281	|	 2479	|	 1063	|	 1194	|	 42.880192	|	 48.164581	|
282	|	 2471	|	 1051	|	 1208	|	 42.533386	|	 48.887089	|
283	|	 2468	|	 1037	|	 1225	|	 42.017830	|	 49.635334	|
284	|	 2468	|	 1008	|	 1256	|	 40.842789	|	 50.891411	|
285	|	 2460	|	 972	|	 1286	|	 39.512196	|	 52.276424	|
286	|	 2464	|	 955	|	 1312	|	 38.758118	|	 53.246754	|
287	|	 2462	|	 920	|	 1333	|	 37.367992	|	 54.142975	|
288	|	 2456	|	 894	|	 1357	|	 36.400650	|	 55.252441	|
289	|	 2445	|	 849	|	 1388	|	 34.723927	|	 56.768917	|
290	|	 2445	|	 819	|	 1416	|	 33.496933	|	 57.914112	|
291	|	 2444	|	 804	|	 1440	|	 32.896889	|	 58.919804	|
292	|	 2449	|	 791	|	 1460	|	 32.298897	|	 59.616169	|
293	|	 2455	|	 779	|	 1477	|	 31.731161	|	 60.162933	|
294	|	 2457	|	 774	|	 1491	|	 31.501831	|	 60.683762	|
295	|	 2461	|	 746	|	 1516	|	 30.312881	|	 61.600975	|
296	|	 2463	|	 708	|	 1553	|	 28.745432	|	 63.053188	|
297	|	 2467	|	 697	|	 1568	|	 28.252939	|	 63.558979	|
298	|	 2467	|	 684	|	 1585	|	 27.725983	|	 64.248077	|
299	|	 2469	|	 683	|	 1596	|	 27.663021	|	 64.641556	|
300	|	 2475	|	 680	|	 1601	|	 27.474747	|	 64.686867	|
